1 10 20
100 200 125
201 210 89
900 1000 174
920473 415917 525
721005 736042 424
964390 259621 525
834983 597984 509
81018 589977 470
30803 255544 443
381712 660786 509
80788 721095 509
148629 976030 525
116026 300909 443
494068 719644 509
301868 312369 384
375033 212792 443
225276 127408 386
590809 105863 470
490602 655996 509
592470 287767 470
943595 659600 525
116401 481482 449
49427 276592 443
836936 843100 525
987460 607287 525
4686 783355 509
933251 735673 525
977688 853195 507
242461 996649 525
288506 247611 407
502246 886940 525
341339 809217 509
104586 614005 470
131533 511222 449
874026 300781 525
224256 977692 525
797447 97696 509
566939 162064 470
961992 78057 525
884694 885367 295
825688 936006 525
244255 309380 407
369996 647637 509
50738 980676 525
353802 503598 449
339464 423530 449
138448 357537 443
97615 10417 351
673072 647001 442
183795 935442 525
442355 706337 509
986893 787555 525
329722 941509 525
838213 110098 525
306623 624276 470
878983 383403 525
703705 839644 525
224357 896480 525
762248 484492 509
800882 891478 525
457431 395063 449
660617 965698 525
481698 368984 449
155609 502700 449
634698 561237 509
469261 138125 449
790340 398133 509
685614 675240 385
81321 203063 383
242626 963656 525
507448 190212 449
551564 609768 434
953951 38461 525
849344 314737 525
956451 804910 525
983248 674894 525
403883 235107 441
110387 252284 443
205931 297337 443
759544 96097 509
521646 153860 470
649211 543324 509
150170 991238 525
93512 826635 509
28288 284880 443
980211 648107 525
329353 380233 441
338561 763862 509
237014 977080 525
431132 79678 449
25350 969729 525
85206 417857 449
789966 901715 525
934947 516625 525
17480 366153 443
78342 338101 443
955879 610184 525
529384 148171 470
201652 817613 509
970643 256309 525
720425 513707 509
764733 144371 509
633488 847914 525
224143 791036 509
516438 363495 470
353461 384773 423
198261 94963 383
323781 323322 291
73818 46481 340
417422 238760 449
796313 36782 509
782201 253365 509
210234 367736 443
143767 497076 449
92275 167592 383
197184 389698 443
754401 994414 525
396304 583664 470
859747 717623 525
504303 811773 509
688432 411946 509
958037 499309 525
703952 170490 509
146249 835315 509
162852 569442 470
404763 101515 443
441278 474233 444
194820 177178 365
686072 241530 509
359329 299748 441
328601 277254 389
476370 510499 426
349099 766168 509
407621 611725 470
984149 577088 525
200372 323499 443
918712 281473 525
353302 403830 436
101384 81051 341
248832 297015 407
885066 835635 525
836664 315237 509
617411 907090 525
569873 678582 509
298487 607829 470
785147 99738 509
877663 160121 525
224682 949049 525
663944 111800 509
67455 685873 509
746675 447300 509
685994 908620 525
252703 506785 449
420003 126380 449
535246 576261 452
730258 536320 509
42071 447276 449
804556 98784 509
141785 755725 509
315200 361458 441
745410 266069 509
837564 250632 509
765088 48682 509
66316 29275 340
508297 118864 449
368882 83074 443
9096 897251 525
793081 481463 509
517752 904985 525
85332 811205 509
47618 891368 525
395687 394670 312
733603 675183 504
517931 156325 470
936107 435311 525
543377 323243 470
839781 735116 525
875752 497270 525
457686 349096 449
353950 862939 525
254800 643327 509
795313 193234 509
663225 668226 442
641251 690189 442
154696 546993 470
894848 110413 525
195005 303729 443
665563 589772 509
662374 258883 509
618954 191339 470
626766 944622 525
461340 521794 470
352364 759300 509
373743 872952 525
364914 423461 449
456479 294760 449
334720 219637 443
997210 578769 525
374339 712443 509
930541 935250 414
622627 192808 470
152274 318428 443
7335 58168 340
263200 721947 509
687616 154096 509
628929 844819 525
939434 181015 525
