1 10 20
100 200 125
201 210 89
900 1000 174
321197 321183 291
564819 564834 222
229322 229357 200
675665 675657 230
147156 147077 233
873365 873292 326
757561 757520 287
202356 202382 267
68975 68901 206
951191 951227 264
332567 332635 229
480409 480338 351
636450 636480 217
351056 351079 273
423313 423348 250
905113 905015 264
54807 54765 185
58916 58983 149
959751 959707 277
104814 104756 204
848003 848076 251
593473 593492 266
156527 156564 277
942949 942973 233
210619 210689 236
228834 228860 200
666940 667020 204
801894 801867 300
106930 107000 323
185173 185154 285
528454 528479 196
762200 762227 150
66371 66376 206
354836 354865 211
52497 52454 203
390781 390776 224
686227 686272 230
763816 763883 300
276883 276947 252
316655 316705 247
116411 116319 199
40039 40117 275
503130 503214 271
344492 344443 291
491682 491781 258
388702 388662 162
868349 868417 220
851796 851708 251
707866 707952 274
218594 218633 174
914681 914751 277
909262 909340 326
90428 90329 284
701415 701417 261
134397 134389 132
854812 854868 251
60359 60339 242
521605 521546 240
233584 233573 244
660996 660915 279
644160 644189 217
3154 3171 168
697400 697471 261
704981 704956 212
319335 319362 247
662429 662385 261
29749 29802 166
341077 341142 229
989970 989953 184
726535 726459 274
557362 557333 284
862622 862551 326
972997 972916 321
429608 429676 250
269028 269043 177
189599 189648 210
637103 637126 173
683450 683395 186
535150 535101 209
245922 245977 169
808806 808794 238
585301 585229 297
737793 737843 243
207131 207131 112
978221 978285 321
119236 119250 168
21165 21121 150
411055 411046 167
623837 623902 279
219447 219483 293
428067 428118 281
63806 63734 237
89246 89153 165
657425 657446 217
632486 632581 279
727280 727217 287
69449 69542 299
776647 776575 269
257662 257573 213
41158 41187 151
175196 175100 241
277618 277681 327
629699 629737 204
438922 438862 294
26136 26054 202
404153 404141 162
554862 554879 284
767772 767868 300
702661 702704 318
755951 756034 318
825343 825342 313
43544 43569 195
62916 63006 180
198833 198872 192
61721 61807 286
53261 53243 309
126880 126844 225
911371 911378 127
746047 745951 287
267867 267778 301
266415 266343 226
713832 713875 212
627426 627494 279
952832 952754 259
412953 412863 343
922986 922887 326
459118 459148 201
390839 390844 206
44473 44509 239
91010 90936 209
317111 317076 154
821204 821120 313
201645 201603 192
688017 687954 248
349974 349898 273
216674 216610 218
124703 124702 88
925112 925162 308
669862 669833 186
579016 579047 222
853831 853861 238
578863 578857 191
965332 965395 246
92734 92815 209
56174 56270 304
603446 603519 235
54510 54478 216
304723 304718 265
424331 424297 219
452245 452285 263
445423 445407 170
878140 878182 202
847824 847831 251
809702 809758 269
196702 196620 298
106653 106565 279
157824 157896 215
108683 108592 248
152018 151928 220
390714 390801 224
863255 863256 189
307972 308044 190
676562 676517 292
661367 661466 323
102234 102238 160
371997 371908 317
40283 40250 213
366181 366109 242
798590 798640 300
902592 902550 383
822352 822276 220
781672 781641 207
191561 191542 329
361085 361069 211
340171 340243 185
39218 39168 275
3710 3795 238
617991 617990 111
208283 208225 187
277965 277978 177
650723 650813 248
106572 106662 248
635947 636028 310
75913 75949 263
897035 897090 264
687580 687484 243
484550 484619 320
957315 957391 352
617359 617314 191
268089 268131 164
566998 566982 129
418708 418613 250
141943 142010 313
499380 499293 227
812857 812911 251
148189 148148 264
914754 914656 277
651386 651392 217
214961 214882 249
252343 252311 257
